/home/daniel/NetBeansProjects/migrasap/src/main/java/mx/com/wwn/migrasap/controllers/mapping/ctrlMapping.java
/home/daniel/NetBeansProjects/migrasap/src/main/java/mx/com/wwn/migrasap/beans/localmanage/reqMassiveImport.java
/home/daniel/NetBeansProjects/migrasap/src/main/java/mx/com/wwn/migrasap/controllers/lsmwfields/ctrlLsmwFields.java
/home/daniel/NetBeansProjects/migrasap/src/main/java/mx/com/wwn/migrasap/beans/login/resLogin.java
/home/daniel/NetBeansProjects/migrasap/src/main/java/mx/com/wwn/migrasap/controllers/sapconn/ctrlSapConn.java
/home/daniel/NetBeansProjects/migrasap/src/main/java/mx/com/wwn/migrasap/controllers/main/ctrlMain.java
/home/daniel/NetBeansProjects/migrasap/src/main/java/mx/com/wwn/migrasap/beans/rules/reqRule.java
/home/daniel/NetBeansProjects/migrasap/src/main/java/mx/com/wwn/migrasap/beans/mapping/reqMapping.java
/home/daniel/NetBeansProjects/migrasap/src/main/java/mx/com/wwn/migrasap/beans/Error.java
/home/daniel/NetBeansProjects/migrasap/src/main/java/mx/com/wwn/migrasap/beans/lsmwfields/reqLsmwField.java
/home/daniel/NetBeansProjects/migrasap/src/main/java/mx/com/wwn/migrasap/beans/localmanage/localManage.java
/home/daniel/NetBeansProjects/migrasap/src/main/java/mx/com/wwn/migrasap/beans/profiles/reqModule.java
/home/daniel/NetBeansProjects/migrasap/src/main/java/mx/com/wwn/migrasap/beans/sapfields/reqSapField.java
/home/daniel/NetBeansProjects/migrasap/src/main/java/mx/com/wwn/migrasap/beans/lsmwfields/lsmwField.java
/home/daniel/NetBeansProjects/migrasap/src/main/java/mx/com/wwn/migrasap/controllers/saptables/ctrlSapTables.java
/home/daniel/NetBeansProjects/migrasap/src/main/java/mx/com/wwn/migrasap/controllers/downloadlayout/ctrlDownloadLayout.java
/home/daniel/NetBeansProjects/migrasap/src/main/java/mx/com/wwn/migrasap/controllers/files.java
/home/daniel/NetBeansProjects/migrasap/src/main/java/mx/com/wwn/migrasap/beans/lsmws/resLsmw.java
/home/daniel/NetBeansProjects/migrasap/src/main/java/mx/com/wwn/migrasap/controllers/rules/ctrlRules.java
/home/daniel/NetBeansProjects/migrasap/src/main/java/mx/com/wwn/migrasap/beans/rules/rule.java
/home/daniel/NetBeansProjects/migrasap/src/main/java/mx/com/wwn/migrasap/controllers/rfc/RFC.java
/home/daniel/NetBeansProjects/migrasap/src/main/java/mx/com/wwn/migrasap/beans/users/reqUser.java
/home/daniel/NetBeansProjects/migrasap/src/main/java/mx/com/wwn/migrasap/controllers/rfc/sapjco.java
/home/daniel/NetBeansProjects/migrasap/src/main/java/mx/com/wwn/migrasap/beans/sapconn/resSapConn.java
/home/daniel/NetBeansProjects/migrasap/src/main/java/mx/com/wwn/migrasap/beans/sapfields/resSapField.java
/home/daniel/NetBeansProjects/migrasap/src/main/java/mx/com/wwn/migrasap/beans/uploadlayout/uploadLayout.java
/home/daniel/NetBeansProjects/migrasap/src/main/java/mx/com/wwn/migrasap/beans/localmanage/resMassiveImport.java
/home/daniel/NetBeansProjects/migrasap/src/main/java/mx/com/wwn/migrasap/controllers/profiles/ctrlModules.java
/home/daniel/NetBeansProjects/migrasap/src/main/java/mx/com/wwn/migrasap/controllers/conex.java
/home/daniel/NetBeansProjects/migrasap/src/main/java/mx/com/wwn/migrasap/controllers/session.java
/home/daniel/NetBeansProjects/migrasap/src/main/java/mx/com/wwn/migrasap/beans/localmanage/reqLocalManage.java
/home/daniel/NetBeansProjects/migrasap/src/main/java/mx/com/wwn/migrasap/controllers/users/ctrlUsers.java
/home/daniel/NetBeansProjects/migrasap/src/main/java/mx/com/wwn/migrasap/controllers/sapfields/ctrlSapFields.java
/home/daniel/NetBeansProjects/migrasap/src/main/java/mx/com/wwn/migrasap/beans/downloadlayout/resDownloadLayout.java
/home/daniel/NetBeansProjects/migrasap/src/main/java/mx/com/wwn/migrasap/beans/downloadlayout/reqDownloadLayout.java
/home/daniel/NetBeansProjects/migrasap/src/main/java/mx/com/wwn/migrasap/controllers/profiles/ctrlProfiles.java
/home/daniel/NetBeansProjects/migrasap/src/main/java/mx/com/wwn/migrasap/beans/lsmws/lsmw.java
/home/daniel/NetBeansProjects/migrasap/src/main/java/mx/com/wwn/migrasap/controllers/lsmws/ctrlLsmws.java
/home/daniel/NetBeansProjects/migrasap/src/main/java/mx/com/wwn/migrasap/beans/sapconn/sapConn.java
/home/daniel/NetBeansProjects/migrasap/src/main/java/mx/com/wwn/migrasap/beans/sapconn/reqSapConn.java
/home/daniel/NetBeansProjects/migrasap/src/main/java/mx/com/wwn/migrasap/beans/saptables/sapTable.java
/home/daniel/NetBeansProjects/migrasap/src/main/java/mx/com/wwn/migrasap/beans/login/reqLogin.java
/home/daniel/NetBeansProjects/migrasap/src/main/java/mx/com/wwn/migrasap/beans/saptables/resSapTable.java
/home/daniel/NetBeansProjects/migrasap/src/main/java/mx/com/wwn/migrasap/beans/Auth.java
/home/daniel/NetBeansProjects/migrasap/src/main/java/mx/com/wwn/migrasap/beans/uploadlayout/resUploadLayout.java
/home/daniel/NetBeansProjects/migrasap/src/main/java/mx/com/wwn/migrasap/beans/saptables/reqSapTable.java
/home/daniel/NetBeansProjects/migrasap/src/main/java/mx/com/wwn/migrasap/controllers/uploadlayout/ctrlUploadLayout.java
/home/daniel/NetBeansProjects/migrasap/src/main/java/mx/com/wwn/migrasap/beans/profiles/module.java
/home/daniel/NetBeansProjects/migrasap/src/main/java/mx/com/wwn/migrasap/beans/users/user.java
/home/daniel/NetBeansProjects/migrasap/src/main/java/mx/com/wwn/migrasap/beans/users/resUser.java
/home/daniel/NetBeansProjects/migrasap/src/main/java/mx/com/wwn/migrasap/beans/downloadlayout/downloadLayout.java
/home/daniel/NetBeansProjects/migrasap/src/main/java/mx/com/wwn/migrasap/beans/lsmwfields/resLsmwField.java
/home/daniel/NetBeansProjects/migrasap/src/main/java/mx/com/wwn/migrasap/beans/mapping/mapping.java
/home/daniel/NetBeansProjects/migrasap/src/main/java/mx/com/wwn/migrasap/controllers/localmanage/ctrlLocalManage.java
/home/daniel/NetBeansProjects/migrasap/src/main/java/mx/com/wwn/migrasap/beans/localmanage/resLocalManage.java
/home/daniel/NetBeansProjects/migrasap/src/main/java/mx/com/wwn/migrasap/beans/profiles/reqProfile.java
/home/daniel/NetBeansProjects/migrasap/src/main/java/mx/com/wwn/migrasap/beans/sapfields/sapField.java
/home/daniel/NetBeansProjects/migrasap/src/main/java/mx/com/wwn/migrasap/beans/login/login.java
/home/daniel/NetBeansProjects/migrasap/src/main/java/mx/com/wwn/migrasap/beans/profiles/resProfile.java
/home/daniel/NetBeansProjects/migrasap/src/main/java/mx/com/wwn/migrasap/beans/localmanage/massiveImport.java
/home/daniel/NetBeansProjects/migrasap/src/main/java/mx/com/wwn/migrasap/beans/uploadlayout/reqUploadLayout.java
/home/daniel/NetBeansProjects/migrasap/src/main/java/mx/com/wwn/migrasap/beans/profiles/profile.java
/home/daniel/NetBeansProjects/migrasap/src/main/java/mx/com/wwn/migrasap/beans/lsmws/reqLsmw.java
/home/daniel/NetBeansProjects/migrasap/src/main/java/mx/com/wwn/migrasap/beans/profiles/resModule.java
/home/daniel/NetBeansProjects/migrasap/src/main/java/mx/com/wwn/migrasap/beans/rules/resRule.java
/home/daniel/NetBeansProjects/migrasap/src/main/java/mx/com/wwn/migrasap/beans/uploadlayout/layoutValidation.java
/home/daniel/NetBeansProjects/migrasap/src/main/java/mx/com/wwn/migrasap/beans/mapping/resMapping.java
/home/daniel/NetBeansProjects/migrasap/src/main/java/mx/com/wwn/migrasap/controllers/login/ctrlLogin.java
